Life Data Analysis Part IV - Mixture Models
…
For consistent handling of the data, {weibulltools} introduces the
function reliability_data() that converts the original
dataset into a wt_reliability_data object. This formatted
object allows to easily apply the presented methods.

voltage_tbl <- reliability_data(data = voltage, x = hours, status = status)
voltage_tbl
#> Reliability Data with characteristic x: 'hours':
#> # A tibble: 58 × 3
#>        x status id   
#>    <dbl>  <dbl> <chr>
#>  1     2      1 ID1  
#>  2    28      1 ID2  
#>  3    67      0 ID3  
#>  4   119      1 ID4  
#>  5   179      0 ID5  
#>  6   236      1 ID6  
#>  7   282      1 ID7  
#>  8   317      1 ID8  
#>  9   348      1 ID9  
#> 10   387      1 ID10 
#> # ℹ 48 more rows
…
