Life Data Analysis Part I - Estimation of Failure Probabilities
…
and

\[\eta = \exp\left(\mu\right).\]

Data: Shock Absorber

To apply the introduced methods of non-parametric failure probability estimation and probability plotting the shock data is used. In this dataset kilometer-dependent problems that have occurred on shock absorbers are reported. In addition to failed items the dataset also contains non-defectives (censored) observations. The data can be found in Statistical Methods for Reliability Data 3.

For consistent handling of the data, weibulltools introduces the function reliability_data() that converts the original dataset into a wt_reliability_data object. This formatted object allows to easily apply the presented methods.

shock_tbl <- reliability_data(data = shock, x = distance, status = status)
shock_tbl
#> Reliability Data:
#> # A tibble: 38 x 3
#>        x status id   
#>    <int>  <dbl> <chr>
#>  1  6700      1 ID1  
#>  2  6950      0 ID2  
#>  3  7820      0 ID3  
#>  4  8790      0 ID4  
#>  5  9120      1 ID5  
#>  6  9660      0 ID6  
#>  7  9820      0 ID7  
#>  8 11310      0 ID8  
#>  9 11690      0 ID9  
#> 10 11850      0 ID10 
#> # ... with 28 more rows
…
# Second case where both, survived and failed units are considered:
cdf_tbl_john <- cdf_tbl %>% filter(cdf_estimation_method == "johnson") 
cdf_tbl_john
#> CDF estimation for method 'johnson':
#> # A tibble: 38 x 6
#>    id        x status  rank    prob cdf_estimation_method
#>    <chr> <int>  <dbl> <dbl>   <dbl> <chr>                
#>  1 ID1    6700      1  1     0.0182 johnson              
#>  2 ID2    6950      0 NA    NA      johnson              
#>  3 ID3    7820      0 NA    NA      johnson              
#>  4 ID4    8790      0 NA    NA      johnson              
#>  5 ID5    9120      1  2.09  0.0465 johnson              
#>  6 ID6    9660      0 NA    NA      johnson              
#>  7 ID7    9820      0 NA    NA      johnson              
#>  8 ID8   11310      0 NA    NA      johnson              
#>  9 ID9   11690      0 NA    NA      johnson              
#> 10 ID10  11850      0 NA    NA      johnson              
#> # ... with 28 more rows
…
